{ "height":11,
 "layers":[
        {
         "data":[19, 20, 19, 19, 19, 20, 19, 19, 19, 20, 19, 19, 20, 19, 19, 20, 20, 20, 19, 20, 19, 19, 19, 19, 20, 20, 19, 20, 19, 20, 19, 20, 20, 20, 19, 19, 19, 19, 20, 19, 19, 19, 19, 20, 19, 19, 19, 20, 20, 19, 19, 19, 19, 20, 19, 20, 20, 19, 20, 20, 19, 19, 20, 20, 20, 19, 19, 19, 20, 19, 19, 19, 20, 19, 20, 19, 19, 20, 19, 19, 19, 19, 19, 19, 19, 19, 19, 19, 19, 19, 20, 19, 19, 19, 19, 20, 19, 20, 19, 20, 20, 20, 19, 20, 19, 20, 19, 19, 19, 19, 19, 19, 20, 19, 19, 19, 20, 19, 20, 19, 19, 19, 19, 19, 19, 20, 19, 19, 19, 20, 20, 20, 19, 20, 19, 19, 19, 19, 19, 19, 20, 19, 19, 19, 19, 19, 20, 19, 19, 20, 19, 19, 20, 20, 20, 20, 19, 19, 19, 19, 20, 20, 19, 20, 19, 19, 20, 20, 20, 20, 20, 20, 19, 20, 19, 19, 19, 20, 19, 20, 19, 19, 19, 19, 19, 20, 19, 19, 19, 20, 20, 20, 20, 19, 20, 20, 20, 19],
         "height":11,
         "name":"Water",
         "opacity":1,
         "type":"tilelayer",
         "visible":true,
         "width":18,
         "x":0,
         "y":0
        }, 
        {
         "data":[3, 1, 4, 3, 2, 2, 3, 2, 0, 0, 2, 1, 1, 3, 4, 2, 2, 1, 1, 4, 2, 4, 1, 3, 4, 1, 0, 0, 1, 1, 2, 3, 1, 3, 4, 3, 3, 4, 1, 2, 2, 3, 2, 0, 0, 0, 0, 3, 2, 3, 4, 4, 4, 1, 1, 2, 3, 4, 1, 3, 0, 0, 3, 4, 0, 0, 3, 2, 3, 4, 1, 4, 1, 1, 4, 2, 3, 4, 0, 1, 3, 1, 1, 0, 3, 2, 2, 4, 1, 2, 2, 1, 4, 1, 4, 4, 0, 3, 4, 1, 3, 0, 2, 3, 4, 4, 4, 2, 2, 2, 2, 1, 3, 2, 0, 0, 1, 2, 0, 0, 3, 4, 3, 2, 3, 3, 2, 4, 1, 1, 1, 2, 4, 0, 0, 0, 0, 2, 1, 3, 3, 2, 4, 4, 1, 3, 2, 3, 3, 1, 3, 1, 0, 0, 4, 3, 1, 1, 1, 3, 2, 2, 2, 1, 2, 4, 4, 1, 1, 4, 0, 0, 4, 3, 3, 3, 1, 2, 4, 3, 3, 4, 3, 4, 3, 3, 4, 4, 0, 0, 3, 3, 1, 2, 2, 1, 1, 2],
         "height":11,
         "name":"Ground",
         "opacity":1,
         "type":"tilelayer",
         "visible":true,
         "width":18,
         "x":0,
         "y":0
        }, 
        {
         "data":[182, 183, 208, 209, 208, 209, 208, 209, 0, 0, 208, 209, 208, 209, 208, 209, 208, 209, 209, 0, 0, 0, 0, 0, 0, 0, 0, 0, 0, 0, 0, 0, 0, 0, 0, 181, 182, 0, 0, 0, 0, 0, 0, 0, 0, 0, 0, 0, 0, 0, 0, 183, 0, 208, 209, 0, 0, 0, 183, 0, 0, 0, 0, 0, 0, 0, 0, 0, 0, 0, 0, 181, 182, 0, 183, 0, 0, 0, 0, 0, 0, 0, 0, 0, 0, 183, 0, 0, 0, 208, 209, 0, 0, 0, 0, 0, 0, 0, 0, 0, 0, 0, 0, 0, 0, 0, 0, 181, 182, 0, 0, 0, 0, 0, 0, 0, 0, 0, 0, 0, 0, 0, 0, 0, 0, 208, 209, 0, 0, 183, 0, 0, 0, 0, 0, 0, 0, 0, 0, 183, 0, 0, 0, 181, 182, 0, 0, 0, 0, 0, 0, 0, 0, 0, 0, 0, 0, 0, 0, 0, 0, 208, 209, 0, 0, 0, 0, 183, 0, 0, 0, 0, 0, 0, 0, 0, 183, 0, 0, 183, 181, 182, 181, 182, 181, 182, 181, 182, 0, 0, 181, 182, 181, 182, 181, 182, 181, 182],
         "height":11,
         "name":"Trees",
         "opacity":1,
         "type":"tilelayer",
         "visible":true,
         "width":18,
         "x":0,
         "y":0
        }, 
        {
         "data":[0, 0, 0, 0, 0, 0, 0, 0, 0, 0, 0, 0, 0, 0, 0, 0, 0, 0, 0, 0, 0, 0, 0, 0, 0, 0, 0, 0, 0, 0, 0, 0, 0, 0, 0, 0, 0, 0, 0, 0, 0, 0, 0, 0, 0, 0, 0, 0, 0, 0, 0, 0, 0, 0, 0, 0, 0, 0, 0, 0, 0, 0, 0, 0, 0, 0, 0, 0, 0, 0, 0, 0, 0, 0, 0, 0, 0, 0, 0, 0, 0, 0, 0, 0, 0, 0, 0, 0, 0, 0, 0, 0, 0, 0, 0, 0, 0, 0, 0, 0, 0, 0, 0, 0, 0, 0, 0, 0, 0, 0, 0, 0, 0, 0, 0, 0, 0, 0, 0, 0, 0, 0, 0, 0, 0, 0, 0, 0, 0, 0, 0, 0, 0, 0, 0, 0, 0, 0, 0, 0, 0, 0, 0, 0, 0, 0, 0, 0, 0, 0, 0, 0, 0, 0, 0, 0, 0, 0, 0, 0, 0, 0, 0, 0, 0, 0, 0, 0, 0, 0, 0, 0, 0, 0, 0, 0, 0, 0, 0, 0, 0, 0, 0, 0, 0, 0, 0, 0, 0, 0, 0, 0, 0, 0, 0, 0, 0, 0],
         "height":11,
         "name":"Misc",
         "opacity":1,
         "type":"tilelayer",
         "visible":true,
         "width":18,
         "x":0,
         "y":0
        }],
 "nextobjectid":1,
 "orientation":"orthogonal",
 "properties":
    {

    },
 "renderorder":"right-down",
 "tileheight":64,
 "tilesets":[
        {
         "firstgid":1,
         "image":"tilesheet_complete.png",
         "imageheight":1280,
         "imagewidth":1728,
         "margin":0,
         "name":"kenney_complete",
         "properties":
            {

            },
         "spacing":0,
         "tileheight":64,
         "tilewidth":64
        }],
 "tilewidth":64,
 "version":1,
 "width":18
}